{
  "componentId" : "740342b2-931b-44bc-9dbf-0901294658b7",
  "packageVersion" : "8",
  "componentType" : "process",
  "createdDate" : "20210421 111754.000",
  "createdBy" : "shayan.becceea",
  "packageId" : "20c032c5-ad14-4c54-95c5-af43e0ad24bc",
  "EnvironmentId" : "da98a0b9-3d5a-452c-85dd-d78d5522b003"
}