{
  "componentId" : "a1365ef7-34d6-4373-a8da-86ba817a886a",
  "packageVersion" : "1",
  "componentType" : "process",
  "createdDate" : "20210423 072702.000",
  "createdBy" : "rajneesh.mungrah",
  "packageId" : "a5b07dcf-244b-4748-aaf1-3ce7a12d9da6"
}