{
  "componentId" : "a8950fc8-bddc-437b-9f4e-bbca5a596aaa",
  "packageVersion" : "5",
  "componentType" : "process",
  "createdDate" : "20210422 092923.000",
  "createdBy" : "shayan.becceea",
  "packageId" : "f484d072-7e02-497a-8d2d-312659a5ce56"
}