{
  "componentId" : "f774f478-6d47-4bbd-b115-43b660910793",
  "packageVersion" : "12",
  "componentType" : "process",
  "createdDate" : "20210426 065312.000",
  "createdBy" : "shayan.becceea",
  "packageId" : "ee899371-366b-4899-8fe8-77612dedb195",
  "EnvironmentId" : "bab262a2-54c9-4c88-9148-c3bbc13920e3"
}